%YAML 1.1
%TAG !u! tag:unity3d.com,2011:
--- !u!114 &11400000
MonoBehaviour:
  m_ObjectHideFlags: 0
  m_CorrespondingSourceObject: {fileID: 0}
  m_PrefabInstance: {fileID: 0}
  m_PrefabAsset: {fileID: 0}
  m_GameObject: {fileID: 0}
  m_Enabled: 1
  m_EditorHideFlags: 0
  m_Script: {fileID: 11500000, guid: d1291202d1c015d4986e2a07c3c9089c, type: 3}
  m_Name: Characters
  m_EditorClassIdentifier: 
  characters:
  - _id: sandy
    _name: Sandy
    _playerUnit: {fileID: 8613759851411059060, guid: 29c9c99a8ea504644bc70ebe6040da07, type: 3}
    _unlockCost:
      _currency: FREE
      _value: 0
    _items:
    - _item: {fileID: 0}
      _cost:
        _currency: 
        _value: 0
      _itemType: 0
